<svg xmlns="http://www.w3.org/2000/svg" xmlns:xlink="http://www.w3.org/1999/xlink" viewBox="0 0 826.052 104.026">
  <defs>
    <style>
      .cls-1, .cls-2 {
        fill: #c9c9c9;
      }

      .cls-1 {
        font-size: 14px;
        font-family: OpenSans-Regular, Open Sans;
      }

      .cls-3 {
        fill: url(#linear-gradient);
      }

      .cls-4 {
        fill: url(#linear-gradient-2);
      }
    </style>
    <linearGradient id="linear-gradient" x1="0.5" x2="0.5" y2="1" gradientUnits="objectBoundingBox">
      <stop offset="0" stop-color="#c9c9c9" stop-opacity="0"/>
      <stop offset="1" stop-color="#c9c9c9"/>
    </linearGradient>
    <linearGradient id="linear-gradient-2" x1="-1.562" x2="-1.562" y2="1" xlink:href="#linear-gradient"/>
  </defs>
  <g id="Group_192" data-name="Group 192" transform="translate(-840.664 -3304.514)">
    <text id="_360" data-name="360" class="cls-1" transform="translate(1242 3383.5)"><tspan x="0" y="0">360</tspan></text>
    <g id="Group_188" data-name="Group 188" transform="translate(1232.995 3387.5)">
      <path id="Path_32" data-name="Path 32" class="cls-2" d="M23.9,15.05,16.74,9.1v2.81a29.948,29.948,0,0,1-3.08.17,29.947,29.947,0,0,1-3.15-.12,16.509,16.509,0,0,1-5.87-1.45A6.117,6.117,0,0,1,2.49,8.78,4.978,4.978,0,0,1,1.61,6.1,10.823,10.823,0,0,1,3.65,0,11.576,11.576,0,0,0,.12,5.97,6.9,6.9,0,0,0,.51,9.83a8.58,8.58,0,0,0,2.43,3.14,20.115,20.115,0,0,0,6.64,3.39,36.309,36.309,0,0,0,3.51.93,35.142,35.142,0,0,0,3.65.61v3.14Z"/>
      <path id="Path_33" data-name="Path 33" class="cls-2" d="M41.46,5.97A11.536,11.536,0,0,0,37.93,0a10.823,10.823,0,0,1,2.04,6.1,4.917,4.917,0,0,1-.88,2.67,6.117,6.117,0,0,1-2.15,1.73,16.509,16.509,0,0,1-5.87,1.45c-1.04.09-2.1.13-3.15.12-.92-.01-1.9-.05-2.75-.14l3.74,3.11-3.3,2.76c1.01-.14,1.92-.31,2.89-.51a36.308,36.308,0,0,0,3.51-.93,19.833,19.833,0,0,0,6.64-3.39,8.663,8.663,0,0,0,2.43-3.14A6.874,6.874,0,0,0,41.46,5.97Z"/>
    </g>
    <g id="Group_189" data-name="Group 189" transform="translate(1267 3371.5)">
      <path id="Path_34" data-name="Path 34" class="cls-2" d="M3.69,2.33c0,1.64-.86,2.46-1.87,2.46C.85,4.79.01,4.01,0,2.43,0,.88.85,0,1.88,0,2.97,0,3.69.84,3.69,2.33ZM.84,2.4c-.02,1,.35,1.75,1.01,1.75.7,0,1.01-.74,1.01-1.77,0-.95-.28-1.74-1.01-1.74C1.19.64.84,1.42.84,2.4Z"/>
    </g>
    <g id="Group_190" data-name="Group 190" transform="translate(840.664 3304.514)">
      <path id="Path_37" data-name="Path 37" class="cls-3" d="M371.987,93.457C271.431,92.579,177.858,86.41,108.513,76.08c-34-5.064-60.647-10.889-79.194-17.318C9.862,52.014,0,44.778,0,37.237,0,19.522,53.4,7.209,98.2,0L98.4,1.281C35.787,11.357,1.3,24.131,1.3,37.237c0,6.826,9.836,13.84,28.441,20.289,18.469,6.4,45.038,12.209,78.96,17.26C177.994,85.11,271.5,91.272,372,92.15Z"/>
    </g>
    <g id="Group_191" data-name="Group 191" transform="translate(1294.716 3304.514)">
      <path id="Path_38" data-name="Path 38" class="cls-4" d="M.013,93.462c100.557-.878,194.133-7.047,263.479-17.377,34-5.064,60.648-10.889,79.2-17.319C362.138,52.024,372,44.782,372,37.248,372,19.526,318.6,7.213,273.8.01l-.208,1.281C336.212,11.367,370.7,24.135,370.7,37.248c0,6.826-9.836,13.841-28.442,20.29-18.469,6.4-45.039,12.209-78.961,17.26C194.009,85.115,100.5,91.284,0,92.162Z" transform="translate(0 -0.01)"/>
    </g>
  </g>
</svg>
