<svg xmlns="http://www.w3.org/2000/svg" width="40" height="40" viewBox="0 0 40 40">
  <path fill="#CC9966" d="M20,0A20,20,0,1,0,40,20,20,20,0,0,0,20,0"/>
  <path fill="#fff" d="M27.623,27.714a0.985,0.985,0,0,1-1.4,0l-3.185-3.2a6.834,6.834,0,0,1-4.128,1.406,7.015,7.015,0,1,1,5.526-2.812l3.185,3.2A1,1,0,0,1,27.623,27.714ZM18.911,13.983a4.973,4.973,0,0,0,0,9.945,4.9,4.9,0,0,0,3.348-1.335,0.494,0.494,0,0,1,.27-0.272A4.96,4.96,0,0,0,18.911,13.983Z"/>
</svg>
